{
  "name": "Drux Theme",
  "author": "Adalid",
  "maintainers": ["Adalid <ren.webmobile@gmail.com>"],
  "colors": {
    "contrastBorder": "#00000000",
    "activityBar.background": "#e3dbd7",
    "activityBar.border": "#cbbbb4",
    "activityBar.foreground": "#D3694C",
    "activityBar.inactiveForeground": "#a69692b3",
    "activityBar.activeBorder": "#D3694C",
    "activityBar.activeBackground": "#d3694c26",
    "activityBarBadge.background": "#D3694C",
    "activityBarBadge.foreground": "#e3dbd7",
    "activityBar.dropBorder": "#a6969233",
    "welcomePage.tileBackground": "#00000010",
    "welcomePage.tileBorder": "#00000020",
    "welcomePage.tileHoverBackground": "#00000020",
    "welcomePage.progress.background": "#eee9e7",
    "welcomePage.progress.foreground": "#D3694C",
    "badge.background": "#D3694C",
    "badge.foreground": "#EAE4E1",
    "breadcrumb.background": "#EAE4E1",
    "breadcrumbPicker.background": "#EAE4E1",
    "button.background": "#D3694C75",
    "button.foreground": "#36221d",
    "button.border": "#D3694C75",
    "button.hoverBackground": "#D3694C90",
    "extensionButton.foreground": "#36221d",
    "extensionButton.background": "#D3694C60",
    "extensionButton.hoverBackground": "#D3694C90",
    "extensionButton.prominentBackground": "#D3694C9d",
    "extensionButton.prominentForeground": "#36221d",
    "extensionButton.prominentHoverBackground": "#D3694C",
    "button.secondaryBackground": "#D3694C20",
    "button.secondaryForeground": "#36221d",
    "button.secondaryHoverBackground": "#D3694C35",
    "charts.foreground": "#36221d",
    "charts.lines": "#36221d",
    "charts.red": "#dc2e2e",
    "charts.blue": "#009DB5",
    "charts.yellow": "#ad8200",
    "charts.orange": "#ce6700",
    "charts.green": "#51A200",
    "charts.purple": "#CE4985",
    "contrastActiveBorder": "#00000000",
    "errorForeground": "#FF3A3A",
    "focusBorder": "#D3694C40",
    "foreground": "#000000AA",
    "icon.foreground": "#000000AA",
    "selection.background": "#D3694C60",
    "widget.shadow": "#cbbbb430",
    "profileBadge.background": "#D3694C",
    "profileBadge.foreground": "#EAE4E1",
    "commandCenter.border": "#cbbbb4",
    "commandCenter.background": "#EAE4E1",
    "commandCenter.activeBackground": "#eee9e760",
    "commandCenter.activeForeground": "#00000090",
    "commandCenter.foreground": "#a69692",
    "checkbox.foreground": "#36221d",
    "debugExceptionWidget.background": "#eee9e7",
    "debugExceptionWidget.border": "#cbbbb4",
    "debugToolBar.background": "#eee9e7",
    "toolbar.hoverBackground": "#a6969260",
    "descriptionForeground": "#36221d4d",
    "disabledForeground": "#36221d4d",
    "diffEditor.border": "#cbbbb4",
    "diffEditor.insertedTextBackground": "#51A20020",
    "diffEditor.removedTextBackground": "#FF3A3A25",
    "diffEditor.diagonalFill": "#cbbbb480",
    "diffEditor.insertedTextBorder": "#00000000",
    "diffEditor.removedTextBorder": "#00000000",
    "diffEditorGutter.insertedLineBackground": "#00000000",
    "diffEditorGutter.removedLineBackground": "#00000000",
    "diffEditor.insertedLineBackground": "#51A20020",
    "diffEditor.removedLineBackground": "#FF3A3A25",
    "diffEditorOverview.insertedForeground": "#51A20025",
    "diffEditorOverview.removedForeground": "#FF3A3A30",
    "editorInlayHint.background": "#00000020",
    "editorInlayHint.foreground": "#00000090",
    "editorInlayHint.typeBackground": "#7056c430",
    "editorInlayHint.typeForeground": "#7056c4aa",
    "editorGhostText.border": "#00000000",
    "editorGhostText.foreground": "#36221d70",
    "editorCursor.background": "#D3694C",
    "editorBracketHighlight.foreground1": "#ad8200",
    "editorBracketHighlight.foreground2": "#CE4985",
    "editorBracketHighlight.foreground3": "#009DB5",
    "editorBracketHighlight.foreground4": "#7056c4",
    "editorBracketHighlight.foreground5": "#00A47B",
    "editorBracketHighlight.foreground6": "#D8573E",
    "editorBracketHighlight.unexpectedBracket.foreground": "#FF3A3A",
    "editor.foldBackground": "#e3dbd7",
    "editor.background": "#EAE4E1",
    "editor.foreground": "#36221d",
    "editor.findMatchBackground": "#D3694C30",
    "editor.findMatchBorder": "#D3694C60",
    "editor.findMatchHighlightBackground": "#d3694c33",
    "editor.findMatchHighlightBorder": "#d3694c4d",
    "editor.hoverHighlightBackground": "#d3694c40",
    "editor.lineHighlightBackground": "#d3694c0d",
    "editor.lineHighlightBorder": "#d3694c20",
    "editor.rangeHighlightBackground": "#d3694c33",
    "editor.selectionBackground": "#d3694c40",
    "editor.selectionForeground": "#36221d",
    "editor.inactiveSelectionBackground": "#d3694c40",
    "editor.selectionHighlightBorder": "#d3694c40",
    "editor.selectionHighlightBackground": "#D3694C15",
    "editor.wordHighlightStrongBackground": "#d3694c40",
    "editor.wordHighlightBorder": "#d3694c4d",
    "editor.wordHighlightBackground": "#d3694c20",
    "editorBracketMatch.background": "#d3694c40",
    "editorBracketMatch.border": "#d3694c60",
    "editorCodeLens.foreground": "#00000080",
    "editorCursor.foreground": "#ad8200",
    "editorGroup.border": "#cbbbb4",
    "editorGroup.dropBackground": "#D3694C15",
    "editorHoverWidget.background": "#eee9e7",
    "editorHoverWidget.border": "#cbbbb4",
    "editorLink.activeForeground": "#36221d",
    "editorWarning.border": "#00000000",
    "editorInfo.border": "#00000000",
    "editorGutter.commentRangeForeground": "#eee9e7",
    "sash.hoverBorder": "#D3694C50",
    "editorRuler.foreground": "#a6969233",
    "editor.linkedEditingBackground": "#009db533",
    "editorWarning.foreground": "#ad8200",
    "editorWhitespace.foreground": "#a6969260",
    "editorWidget.background": "#eee9e7",
    "editorWidget.resizeBorder": "#D3694C50",
    "editorGutter.background": "#EAE4E1",
    "editorGutter.addedBackground": "#51A200cc",
    "editorGutter.deletedBackground": "#FF3A3Acc",
    "editorGutter.modifiedBackground": "#009DB5cc",
    "editorLineNumber.foreground": "#a69692a6",
    "editorLineNumber.activeForeground": "#5c5554",
    "editorStickyScrollHover.background": "#f7f4f3",
    "dropdown.background": "#EAE4E1",
    "dropdown.listBackground": "#EAE4E1",
    "dropdown.foreground": "#36221d",
    "dropdown.border": "#a6969250",
    "input.background": "#00000000",
    "input.foreground": "#36221d",
    "input.border": "#a6969260",
    "input.placeholderForeground": "#36221d60",
    "inputOption.activeBorder": "#D3694C",
    "inputValidation.errorBackground": "#eee9e7",
    "inputValidation.errorBorder": "#ad8200",
    "inputValidation.infoBackground": "#eee9e7",
    "inputValidation.infoBorder": "#D3694C",
    "inputValidation.warningBackground": "#eee9e7",
    "inputValidation.warningBorder": "#ad8200",
    "list.dropBackground": "#D3694C15",
    "list.focusBackground": "#D3694C40",
    "list.focusForeground": "#000000",
    "list.errorForeground": "#FF3A3A",
    "list.warningForeground": "#ce6700",
    "list.highlightForeground": "#ad8200",
    "list.activeSelectionForeground": "#36221d",
    "list.activeSelectionBackground": "#a6969233",
    "list.inactiveSelectionBackground": "#a696921f",
    "list.inactiveSelectionForeground": "#36221d",
    "list.hoverBackground": "#a696920d",
    "list.hoverForeground": "#000000",
    "quickInputTitle.background": "#e3dbd7",
    "quickInputList.focusForeground": "#000000",
    "quickInput.foreground": "#000000",
    "quickInputList.focusBackground": "#a6969233",
    "gitDecoration.modifiedResourceForeground": "#009DB5",
    "gitDecoration.deletedResourceForeground": "#FF3A3A",
    "gitDecoration.untrackedResourceForeground": "#51A200",
    "gitDecoration.ignoredResourceForeground": "#a69692",
    "gitDecoration.conflictingResourceForeground": "#D3694C",
    "menu.border": "#cbbbb4",
    "menu.background": "#eee9e7",
    "menu.foreground": "#000000",
    "menu.separatorBackground": "#cbbbb465",
    "menu.selectionForeground": "#000000",
    "menubar.selectionBackground": "#eee9e7",
    "menubar.selectionForeground": "#000000",
    "merge.border": "#cbbbb4",
    "merge.commonContentBackground": "#ad820030",
    "merge.commonHeaderBackground": "#ad820080",
    "merge.currentContentBackground": "#51A20030",
    "merge.currentHeaderBackground": "#51A20080",
    "merge.incomingContentBackground": "#009DB530",
    "merge.incomingHeaderBackground": "#009DB580",
    "editorOverviewRuler.border": "#cbbbb4",
    "editorOverviewRuler.commonContentForeground": "#ad8200",
    "editorOverviewRuler.currentContentForeground": "#FF3A3A",
    "editorOverviewRuler.incomingContentForeground": "#51A200",
    "minimap.background": "#EAE4E1",
    "minimap.errorHighlight": "#FF3A3A",
    "minimap.findMatchHighlight": "#D3694C",
    "minimap.selectionHighlight": "#D3694C",
    "minimap.selectionOccurrenceHighlight": "#D3694C",
    "minimap.warningHighlight": "#ce6700",
    "minimapGutter.addedBackground": "#51A200",
    "minimapGutter.deletedBackground": "#FF3A3A",
    "minimapGutter.modifiedBackground": "#009DB5",
    "notificationCenterHeader.foreground": "#36221d",
    "notificationCenterHeader.background": "#eee9e7",
    "notifications.foreground": "#000000",
    "notifications.background": "#eee9e7",
    "notifications.border": "#cbbbb4",
    "notificationLink.foreground": "#ad8200",
    "notificationsErrorIcon.foreground": "#dc2e2e",
    "notificationsWarningIcon.foreground": "#ce6700",
    "notificationsInfoIcon.foreground": "#009DB5",
    "panel.background": "#e6dfdc",
    "panel.border": "#cbbbb4",
    "panel.dropBorder": "#a6969280",
    "panelSection.border": "#cbbbb4",
    "panelTitle.activeBorder": "#D3694C",
    "panelTitle.activeForeground": "#D3694C",
    "panelTitle.inactiveForeground": "#a69692",
    "panelSectionHeader.background": "#a6969220",
    "panelSectionHeader.foreground": "#36221d",
    "panelSectionHeader.border": "#cbbbb4",
    "peekViewEditor.background": "#f2efed",
    "peekViewEditorGutter.background": "#f2efed",
    "peekViewEditor.matchHighlightBackground": "#eee9e740",
    "peekViewResult.background": "#efebe9",
    "peekViewResult.fileForeground": "#36221d",
    "peekViewResult.lineForeground": "#000000",
    "peekViewResult.matchHighlightBackground": "#d3694c80",
    "peekViewEditor.matchHighlightBorder": "#00000000",
    "peekViewResult.selectionBackground": "#d3694c33",
    "peekViewResult.selectionForeground": "#36221d",
    "peekViewTitle.background": "#f4f1f0",
    "peekView.border": "#cbbbb4",
    "peekViewTitleDescription.foreground": "#36221d",
    "peekViewTitleLabel.foreground": "#36221d",
    "peekViewEditorStickyScroll.background": "#f2efed",
    "editorMarkerNavigation.background": "#e3dbd7",
    "editorMarkerNavigationError.background": "#FF3A3A90",
    "editorMarkerNavigationWarning.background": "#ce670090",
    "editorMarkerNavigationInfo.background": "#009DB590",
    "editorError.border": "#00000000",
    "editorError.foreground": "#FF3A3A",
    "pickerGroup.border": "#cbbbb4",
    "pickerGroup.foreground": "#36221d",
    "progressBar.background": "#ad8200",
    "scrollbar.shadow": "#00000000",
    "scrollbarSlider.activeBackground": "#D3694C40",
    "scrollbarSlider.background": "#D3694C20",
    "scrollbarSlider.hoverBackground": "#D3694C30",
    "settings.modifiedItemIndicator": "#D3694C",
    "settings.headerForeground": "#D3694C",
    "keybindingLabel.background": "#eee9e7",
    "keybindingLabel.foreground": "#000000",
    "keybindingLabel.border": "#a69692",
    "keybindingLabel.bottomBorder": "#a69692",
    "sideBar.background": "#e3dbd7",
    "sideBar.border": "#cbbbb4",
    "sideBar.foreground": "#000000CC",
    "sideBarSectionHeader.background": "#e3dbd7",
    "sideBarSectionHeader.foreground": "#36221d",
    "sideBarSectionHeader.border": "#cbbbb4",
    "sideBarTitle.foreground": "#a69692",
    "tree.indentGuidesStroke": "#a6969270",
    "statusBar.background": "#e3dbd7",
    "statusBar.border": "#cbbbb4",
    "statusBar.debuggingBackground": "#D3694C44",
    "statusBar.debuggingForeground": "#36221d",
    "statusBar.foreground": "#E65100",
    "statusBar.noFolderBackground": "#e3dbd7",
    "statusBar.noFolderBorder": "#cbbbb4",
    "statusBar.noFolderForeground": "#E65100",
    "statusBarItem.activeBackground": "#eee9e7",
    "statusBarItem.hoverBackground": "#a6969230",
    "statusBarItem.prominentBackground": "#cbbbb4",
    "statusBarItem.prominentHoverBackground": "#eee9e7",
    "statusBarItem.errorBackground": "#FF3A3A",
    "statusBarItem.warningBackground": "#ce6700",
    "editorSuggestWidget.background": "#EAE4E1",
    "editorSuggestWidget.border": "#cbbbb4",
    "editorSuggestWidget.foreground": "#000000",
    "editorSuggestWidget.highlightForeground": "#ad8200",
    "editorSuggestWidget.selectedBackground": "#D3694C4d",
    "editorGroupHeader.noTabsBackground": "#EAE4E1",
    "editorGroupHeader.tabsBackground": "#e3dbd7",
    "editorGroupHeader.tabsBorder": "#cbbbb4",
    "editorGroupHeader.border": "#bb272700",
    "tab.activeBackground": "#EAE4E1",
    "tab.activeForeground": "#D3694C",
    "tab.activeBorderTop": "#D3694C",
    "tab.activeBorder": "#EAE4E1",
    "tab.border": "#cbbbb4",
    "tab.hoverBackground": "#EAE4E1",
    "tab.inactiveBackground": "#e3dbd7",
    "tab.inactiveForeground": "#a69692",
    "tab.unfocusedHoverBackground": "#EAE4E1",
    "tab.unfocusedActiveForeground": "#D3694C",
    "tab.unfocusedInactiveForeground": "#a69692",
    "tab.unfocusedActiveBorder": "#EAE4E1",
    "tab.lastPinnedBorder": "#cbbbb4",
    "terminal.ansiBlack": "#EAE4E1",
    "terminal.ansiRed": "#FF3A3A",
    "terminal.ansiGreen": "#8BC34A",
    "terminal.ansiYellow": "#ad8200",
    "terminal.ansiBlue": "#009DB5",
    "terminal.ansiMagenta": "#CE4985",
    "terminal.ansiCyan": "#00A47B",
    "terminal.ansiWhite": "#36221d",
    "terminal.ansiBrightBlack": "#009DB5",
    "terminal.ansiBrightRed": "#FF3A3A",
    "terminal.ansiBrightGreen": "#8BC34A",
    "terminal.ansiBrightYellow": "#ad8200",
    "terminal.ansiBrightBlue": "#009DB5",
    "terminal.ansiBrightMagenta": "#CE4985",
    "terminal.ansiBrightCyan": "#00A47B",
    "terminal.ansiBrightWhite": "#36221d",
    "terminal.background": "#e6dfdc",
    "terminal.foreground": "#36221d",
    "terminalCursor.background": "#EAE4E1",
    "terminalCursor.foreground": "#F4511E",
    "terminal.selectionForeground": "#36221d",
    "textBlockQuote.background": "#009DB534",
    "textBlockQuote.border": "#009DB5b9",
    "textCodeBlock.background": "#009DB534",
    "textLink.activeForeground": "#009DB5",
    "textLink.foreground": "#009DB5",
    "textPreformat.foreground": "#ad8200",
    "textSeparator.foreground": "#D3694C",
    "walkThrough.embeddedEditorBackground": "#EAE4E1",
    "titleBar.activeBackground": "#e3dbd7",
    "titleBar.activeForeground": "#a69692",
    "titleBar.inactiveBackground": "#cbbbb4",
    "titleBar.inactiveForeground": "#a69692",
    "titleBar.border": "#cbbbb4",
    "editorUnnecessaryCode.border": "#00000000",
    "editorUnnecessaryCode.opacity": "#000000aa"
  },
  "tokenColors": [
    {
      "scope": [
        "meta.embedded",
        "source.groovy.embedded",
        "string meta.image.inline.markdown",
        "variable.legacy.builtin.python"
      ],
      "settings": {
        "foreground": "#000000ff"
      }
    },
    {
      "scope": "emphasis",
      "settings": {
        "fontStyle": "italic"
      }
    },
    {
      "scope": "strong",
      "settings": {
        "fontStyle": "bold"
      }
    },
    {
      "scope": "meta.diff.header",
      "settings": {
        "foreground": "#000080"
      }
    },
    {
      "scope": "comment",
      "settings": {
        "foreground": "#5c8749"
      }
    },
    {
      "scope": "constant.language",
      "settings": {
        "foreground": "#0000ff"
      }
    },
    {
      "scope": [
        "constant.numeric",
        "variable.other.enummember",
        "keyword.operator.plus.exponent",
        "keyword.operator.minus.exponent"
      ],
      "settings": {
        "foreground": "#098658"
      }
    },
    {
      "scope": "constant.regexp",
      "settings": {
        "foreground": "#811f3f"
      }
    },
    {
      "name": "css tags in selectors, xml tags",
      "scope": "entity.name.tag",
      "settings": {
        "foreground": "#800000"
      }
    },
    {
      "scope": "entity.name.selector",
      "settings": {
        "foreground": "#800000"
      }
    },
    {
      "scope": "entity.other.attribute-name",
      "settings": {
        "foreground": "#e50000"
      }
    },
    {
      "scope": [
        "entity.other.attribute-name.class.css",
        "entity.other.attribute-name.class.mixin.css",
        "entity.other.attribute-name.id.css",
        "entity.other.attribute-name.parent-selector.css",
        "entity.other.attribute-name.pseudo-class.css",
        "entity.other.attribute-name.pseudo-element.css",
        "source.css.less entity.other.attribute-name.id",
        "entity.other.attribute-name.scss"
      ],
      "settings": {
        "foreground": "#800000"
      }
    },
    {
      "scope": "invalid",
      "settings": {
        "foreground": "#cd3131"
      }
    },
    {
      "scope": "markup.underline",
      "settings": {
        "fontStyle": "underline"
      }
    },
    {
      "scope": "markup.bold",
      "settings": {
        "fontStyle": "bold",
        "foreground": "#000080"
      }
    },
    {
      "scope": "markup.heading",
      "settings": {
        "fontStyle": "bold",
        "foreground": "#800000"
      }
    },
    {
      "scope": "markup.italic",
      "settings": {
        "fontStyle": "italic"
      }
    },
    {
      "scope": "markup.strikethrough",
      "settings": {
        "fontStyle": "strikethrough"
      }
    },
    {
      "scope": "markup.inserted",
      "settings": {
        "foreground": "#098658"
      }
    },
    {
      "scope": "markup.deleted",
      "settings": {
        "foreground": "#a31515"
      }
    },
    {
      "scope": "markup.changed",
      "settings": {
        "foreground": "#0451a5"
      }
    },
    {
      "scope": [
        "punctuation.definition.quote.begin.markdown",
        "punctuation.definition.list.begin.markdown"
      ],
      "settings": {
        "foreground": "#0451a5"
      }
    },
    {
      "scope": "markup.inline.raw",
      "settings": {
        "foreground": "#800000"
      }
    },
    {
      "name": "brackets of XML/HTML tags",
      "scope": "punctuation.definition.tag",
      "settings": {
        "foreground": "#800000"
      }
    },
    {
      "scope": ["meta.preprocessor", "entity.name.function.preprocessor"],
      "settings": {
        "foreground": "#0000ff"
      }
    },
    {
      "scope": "meta.preprocessor.string",
      "settings": {
        "foreground": "#a31515"
      }
    },
    {
      "scope": "meta.preprocessor.numeric",
      "settings": {
        "foreground": "#098658"
      }
    },
    {
      "scope": "meta.structure.dictionary.key.python",
      "settings": {
        "foreground": "#0451a5"
      }
    },
    {
      "scope": "storage",
      "settings": {
        "foreground": "#0000ff"
      }
    },
    {
      "scope": "storage.type",
      "settings": {
        "foreground": "#0000ff"
      }
    },
    {
      "scope": ["storage.modifier", "keyword.operator.noexcept"],
      "settings": {
        "foreground": "#0000ff"
      }
    },
    {
      "scope": ["string", "meta.embedded.assembly"],
      "settings": {
        "foreground": "#a31515"
      }
    },
    {
      "scope": [
        "string.comment.buffered.block.pug",
        "string.quoted.pug",
        "string.interpolated.pug",
        "string.unquoted.plain.in.yaml",
        "string.unquoted.plain.out.yaml",
        "string.unquoted.block.yaml",
        "string.quoted.single.yaml",
        "string.quoted.double.xml",
        "string.quoted.single.xml",
        "string.unquoted.cdata.xml",
        "string.quoted.double.html",
        "string.quoted.single.html",
        "string.unquoted.html",
        "string.quoted.single.handlebars",
        "string.quoted.double.handlebars"
      ],
      "settings": {
        "foreground": "#0000ff"
      }
    },
    {
      "scope": "string.regexp",
      "settings": {
        "foreground": "#811f3f"
      }
    },
    {
      "name": "String interpolation",
      "scope": [
        "punctuation.definition.template-expression.begin",
        "punctuation.definition.template-expression.end",
        "punctuation.section.embedded"
      ],
      "settings": {
        "foreground": "#0000ff"
      }
    },
    {
      "name": "Reset JavaScript string interpolation expression",
      "scope": ["meta.template.expression"],
      "settings": {
        "foreground": "#000000"
      }
    },
    {
      "scope": [
        "support.constant.property-value",
        "support.constant.font-name",
        "support.constant.media-type",
        "support.constant.media",
        "constant.other.color.rgb-value",
        "constant.other.rgb-value",
        "support.constant.color"
      ],
      "settings": {
        "foreground": "#0451a5"
      }
    },
    {
      "scope": [
        "support.type.vendored.property-name",
        "support.type.property-name",
        "variable.css",
        "variable.scss",
        "variable.other.less",
        "source.coffee.embedded"
      ],
      "settings": {
        "foreground": "#e50000"
      }
    },
    {
      "scope": ["support.type.property-name.json"],
      "settings": {
        "foreground": "#0451a5"
      }
    },
    {
      "scope": "keyword",
      "settings": {
        "foreground": "#0000ff"
      }
    },
    {
      "scope": "keyword.control",
      "settings": {
        "foreground": "#0000ff"
      }
    },
    {
      "scope": "keyword.operator",
      "settings": {
        "foreground": "#000000"
      }
    },
    {
      "scope": [
        "keyword.operator.new",
        "keyword.operator.expression",
        "keyword.operator.cast",
        "keyword.operator.sizeof",
        "keyword.operator.alignof",
        "keyword.operator.typeid",
        "keyword.operator.alignas",
        "keyword.operator.instanceof",
        "keyword.operator.logical.python",
        "keyword.operator.wordlike"
      ],
      "settings": {
        "foreground": "#0000ff"
      }
    },
    {
      "scope": "keyword.other.unit",
      "settings": {
        "foreground": "#098658"
      }
    },
    {
      "scope": [
        "punctuation.section.embedded.begin.php",
        "punctuation.section.embedded.end.php"
      ],
      "settings": {
        "foreground": "#800000"
      }
    },
    {
      "scope": "support.function.git-rebase",
      "settings": {
        "foreground": "#0451a5"
      }
    },
    {
      "scope": "constant.sha.git-rebase",
      "settings": {
        "foreground": "#098658"
      }
    },
    {
      "name": "coloring of the Java import and package identifiers",
      "scope": [
        "storage.modifier.import.java",
        "variable.language.wildcard.java",
        "storage.modifier.package.java"
      ],
      "settings": {
        "foreground": "#000000"
      }
    },
    {
      "name": "this.self",
      "scope": "variable.language",
      "settings": {
        "foreground": "#0000ff"
      }
    },
    {
      "name": "Function declarations",
      "scope": [
        "entity.name.function",
        "support.function",
        "support.constant.handlebars",
        "source.powershell variable.other.member",
        "entity.name.operator.custom-literal"
      ],
      "settings": {
        "foreground": "#795E26"
      }
    },
    {
      "name": "Types declaration and references",
      "scope": [
        "support.class",
        "support.type",
        "entity.name.type",
        "entity.name.namespace",
        "entity.other.attribute",
        "entity.name.scope-resolution",
        "entity.name.class",
        "storage.type.numeric.go",
        "storage.type.byte.go",
        "storage.type.boolean.go",
        "storage.type.string.go",
        "storage.type.uintptr.go",
        "storage.type.error.go",
        "storage.type.rune.go",
        "storage.type.cs",
        "storage.type.generic.cs",
        "storage.type.modifier.cs",
        "storage.type.variable.cs",
        "storage.type.annotation.java",
        "storage.type.generic.java",
        "storage.type.java",
        "storage.type.object.array.java",
        "storage.type.primitive.array.java",
        "storage.type.primitive.java",
        "storage.type.token.java",
        "storage.type.groovy",
        "storage.type.annotation.groovy",
        "storage.type.parameters.groovy",
        "storage.type.generic.groovy",
        "storage.type.object.array.groovy",
        "storage.type.primitive.array.groovy",
        "storage.type.primitive.groovy"
      ],
      "settings": {
        "foreground": "#267f99"
      }
    },
    {
      "name": "Types declaration and references, TS grammar specific",
      "scope": [
        "meta.type.cast.expr",
        "meta.type.new.expr",
        "support.constant.math",
        "support.constant.dom",
        "support.constant.json",
        "entity.other.inherited-class"
      ],
      "settings": {
        "foreground": "#267f99"
      }
    },
    {
      "name": "Control flow / Special keywords",
      "scope": [
        "keyword.control",
        "source.cpp keyword.operator.new",
        "source.cpp keyword.operator.delete",
        "keyword.other.using",
        "keyword.other.directive.using",
        "keyword.other.operator",
        "entity.name.operator"
      ],
      "settings": {
        "foreground": "#AF00DB"
      }
    },
    {
      "name": "Variable and parameter name",
      "scope": [
        "variable",
        "meta.definition.variable.name",
        "support.variable",
        "entity.name.variable",
        "constant.other.placeholder"
      ],
      "settings": {
        "foreground": "#01138f"
      }
    },
    {
      "name": "Constants and enums",
      "scope": ["variable.other.constant", "variable.other.enummember"],
      "settings": {
        "foreground": "#0070C1"
      }
    },
    {
      "name": "Object keys, TS grammar specific",
      "scope": ["meta.object-literal.key"],
      "settings": {
        "foreground": "#01138f"
      }
    },
    {
      "name": "CSS property value",
      "scope": [
        "support.constant.property-value",
        "support.constant.font-name",
        "support.constant.media-type",
        "support.constant.media",
        "constant.other.color.rgb-value",
        "constant.other.rgb-value",
        "support.constant.color"
      ],
      "settings": {
        "foreground": "#0451a5"
      }
    },
    {
      "name": "Regular expression groups",
      "scope": [
        "punctuation.definition.group.regexp",
        "punctuation.definition.group.assertion.regexp",
        "punctuation.definition.character-class.regexp",
        "punctuation.character.set.begin.regexp",
        "punctuation.character.set.end.regexp",
        "keyword.operator.negation.regexp",
        "support.other.parenthesis.regexp"
      ],
      "settings": {
        "foreground": "#d16969"
      }
    },
    {
      "scope": [
        "constant.character.character-class.regexp",
        "constant.other.character-class.set.regexp",
        "constant.other.character-class.regexp",
        "constant.character.set.regexp"
      ],
      "settings": {
        "foreground": "#811f3f"
      }
    },
    {
      "scope": "keyword.operator.quantifier.regexp",
      "settings": {
        "foreground": "#000000"
      }
    },
    {
      "scope": ["keyword.operator.or.regexp", "keyword.control.anchor.regexp"],
      "settings": {
        "foreground": "#EE0000"
      }
    },
    {
      "scope": ["constant.character", "constant.other.option"],
      "settings": {
        "foreground": "#0000ff"
      }
    },
    {
      "scope": "constant.character.escape",
      "settings": {
        "foreground": "#EE0000"
      }
    },
    {
      "scope": "entity.name.label",
      "settings": {
        "foreground": "#000000"
      }
    }
  ]
}
